<?xml version="1.0" encoding="UTF-8"?>
<svg width="44px" height="44px" viewBox="0 0 44 44" version="1.1" xmlns="http://www.w3.org/2000/svg" xmlns:xlink="http://www.w3.org/1999/xlink">
    <!-- Generator: Sketch 49.3 (51167) - http://www.bohemiancoding.com/sketch -->
    <title>Icon/Favicon</title>
    <desc>Created with Sketch.</desc>
    <defs></defs>
    <g id="Icon/Favicon" stroke="none" stroke-width="1" fill="none" fill-rule="evenodd">
        <g id="Logo" transform="translate(3.000000, 4.000000)">
            <path d="M0,18 L37.5691133,18" id="Stroke-1" stroke="#FBBC00" stroke-width="0.837"></path>
            <path d="M37.5010737,12.5765961 C36.7277479,14.0543799 34.7475929,14.2222222 33.1807355,14.2222222 C32.0290127,14.2222222 30.904843,14.1354072 30.2288717,14.0717429 C29.2406311,13.9907156 29,13.6820402 29,13.1379996 L29,12.4550552 C29,11.5367456 29.2020566,11.2454332 29.9937513,11.2454332 C30.5888999,11.2454332 30.8019778,11.2917345 31.222623,11.3303189 C31.6138781,11.3708326 32.1869842,11.4113462 33.4764729,11.4113462 C34.7659616,11.4113462 34.8486212,11.3708326 34.8486212,10.3502743 C34.8486212,9.33550371 34.9459757,9.08277567 34.2902101,8.81461385 C33.4617779,8.45770784 32.6076294,8.11044794 31.7736865,7.75354193 C29.6337231,6.81979864 29.1579716,6.32013022 29.1579716,3.82564659 C29.1579716,1.84626515 29.5731061,0.412853439 31.8949205,0.0790980889 C32.5268067,0 33.2413525,0 34.110196,0 C35.0231246,0 35.5411244,0.0385844336 36.3915991,0.102248749 C37.4037192,0.165913064 37.6388396,0.499668415 37.6388396,1.03792126 L37.6388396,1.70350274 C37.6388396,2.61988304 37.4404567,2.90733707 36.650599,2.90733707 C35.9342164,2.90733707 35.2417132,2.8031591 34.5106355,2.8031591 C34.1322386,2.8031591 33.4397354,2.78772533 33.0613384,2.78772533 C32.1502466,2.78772533 32.2108636,3.2218002 32.2108636,4.01471032 C32.2108636,4.59347682 32.2329062,4.73816845 32.7674378,4.98896726 C33.3019695,5.21854464 33.8769124,5.44812202 34.4096072,5.67577018 C37.3063646,6.92204739 37.8996764,7.25580274 37.8996764,9.66925906 C37.8996764,10.4602399 37.8794707,11.8473503 37.5010737,12.5765961" id="Fill-5" fill="#FBBC00"></path>
            <path d="M24.3599439,13.26604 C24.1850996,14.0523221 23.7857184,14.2222222 23.1507576,14.2222222 L21.8605908,14.2222222 C21.1041592,14.2222222 20.8483344,13.7994475 20.6900543,13.289747 C20.1139884,11.4978932 19.5342416,9.30894723 19.0207515,7.54080042 C18.5238257,9.30894723 17.9275146,11.4978932 17.3532892,13.289747 C17.1950091,13.7994475 16.9134178,14.2222222 16.1441029,14.2222222 L14.8520957,14.2222222 C14.2171349,14.2222222 13.8619249,14.0523221 13.6815592,13.26604 L11.0386498,1.2801778 C11.0220856,1.19325215 11,1.08657067 11,0.956182186 C11,0.30028862 11.3386458,0 12.2312719,0 L13.2214427,0 C14.0367692,0 14.1950493,0.559089997 14.292594,1.04508342 L15.8830123,9.5282884 L15.7870525,9.88384189 C16.3999277,7.73440756 17.1766044,4.38579432 17.4931646,3.45331913 C17.6532852,3.00683737 17.9864096,2.64135451 18.6213704,2.64135451 L19.3980471,2.64135451 C20.0532531,2.64135451 20.4103035,3.00683737 20.546498,3.45331913 C20.8648986,4.38579432 21.7998554,8.11569508 22.3961665,10.2651294 L22.1914146,9.5282884 L23.7470686,1.04508342 C23.8464538,0.535383001 23.9826483,0 24.7979748,0 L25.7881456,0 C26.662367,0 27.0194175,0.339800281 27.0194175,0.916670525 C27.0194175,1.02137643 27.0194175,1.13398466 26.9807677,1.2801778 L24.3599439,13.26604 Z" id="Fill-3" fill="#FBBC00"></path>
            <path d="M6.92845294,2.85471748 C5.38798361,2.85471748 4.14389911,2.80730348 3.09923403,2.78952324 L3.09923403,5.49014524 C4.06156999,5.47434057 5.18856418,5.44865799 6.55156852,5.44865799 C7.55964287,5.44865799 7.61818803,6.21320862 7.61818803,6.66561714 L7.61818803,6.94022318 C7.61818803,7.38670494 7.55964287,8.15718232 6.55156852,8.15718232 C5.18856418,8.15718232 4.06156999,8.11174392 3.09923403,8.09198808 L3.09923403,13.0704573 C3.09923403,13.8192033 2.74064497,14.2222222 2.03444406,14.2222222 L1.18553935,14.2222222 C0.433600039,14.2222222 0,13.9456406 0,13.0704573 L0,1.08657067 C0,0.0651942399 0.72815534,0 1.18553935,0 L6.92845294,0 C7.46084793,0 8.00970874,0.213362967 8.00970874,1.08657067 L8.00970874,1.63775833 C8.00970874,2.0842401 7.93286822,2.85471748 6.92845294,2.85471748" id="Fill-7" fill="#FBBC00"></path>
            <path d="M7.07769539,32.2223448 C6.90350599,34.9785134 5.20766215,36.2222222 1.98415732,36.2222222 C1.03712764,36.2222222 0.388422321,35.9711264 0.238259053,35.7769195 C0,35.48659 0,35.2296092 0,34.7705747 L0,34.1977625 C0,33.6975326 0.388422321,33.2718467 0.971055802,33.2718467 C1.37549554,33.2718467 1.78594181,33.3581609 2.19638807,33.3581609 C3.18546347,33.3581609 3.3996964,33.1502222 3.50581177,32.9148199 C3.70202511,32.5126743 3.74407083,31.9869425 3.74407083,29.4818697 L3.74407083,24.7404751 C3.22550701,24.7581303 2.69092577,24.7581303 2.150338,24.7581303 C1.05314506,24.7581303 0.987073218,24.0009195 0.987073218,23.5615019 L0.987073218,23.0730421 C0.987073218,22.2099004 1.57170888,22 2.150338,22 L5.98250461,22 C6.94755389,22 7.1197411,22.5708506 7.1197411,23.0730421 L7.1197411,29.2464674 C7.1197411,30.3018544 7.1197411,31.5691034 7.07769539,32.2223448" id="Fill-9" fill="#333333"></path>
            <path d="M20.5046275,34.5804519 C19.7311439,36.0537859 17.7503613,36.2222222 16.1867799,36.2222222 C15.0348616,36.2222222 13.9032496,36.1409081 13.2276052,36.0770185 C12.2344449,35.9957044 12,35.6801283 12,35.1457785 L12,34.4546087 C12,33.5388571 12.1975244,33.2523217 12.9913143,33.2523217 C13.5838876,33.2523217 13.8054104,33.2910427 14.2207655,33.3316998 C14.6176605,33.3723568 15.1936196,33.418822 16.4821436,33.418822 C17.7725136,33.418822 17.8482005,33.3723568 17.8482005,32.3559307 C17.8482005,31.3356324 17.9478858,31.087818 17.2943937,30.8187071 C16.4599913,30.4605379 15.6108208,30.1101128 14.7764184,29.7596878 C12.6368779,28.8207036 12.158758,28.3192667 12.158758,25.8275706 C12.158758,23.8489276 12.5759591,22.4162507 14.8964099,22.0813141 C15.5277498,22 16.2403146,22 17.1134834,22 C18.0235727,22 18.5404591,22.040657 19.3951677,22.1045467 C20.4067883,22.1684363 20.6430792,22.5014369 20.6430792,23.0435309 L20.6430792,23.7056599 C20.6430792,24.6194755 20.4437087,24.913755 19.6554569,24.913755 C18.9410461,24.913755 18.2432494,24.8111444 17.5085323,24.8111444 C17.1356357,24.8111444 16.4396851,24.7859757 16.0649424,24.7859757 C15.1548531,24.7859757 15.2102338,25.223523 15.2102338,26.0114953 C15.2102338,26.5923103 15.2323861,26.7433221 15.7640407,26.9911365 C16.3012333,27.2195904 16.8771925,27.4499803 17.4162312,27.6764982 C20.307103,28.9233143 20.8996764,29.2582509 20.8996764,31.670569 C20.8996764,32.4585413 20.8849082,33.8505612 20.5046275,34.5804519" id="Fill-28" fill="#333333"></path>
            <path d="M30.6012534,26.4215387 L28.9318089,31.1189311 C29.4110945,31.1189311 29.9669048,31.1011976 30.6193776,31.1011976 C31.2718505,31.1011976 31.6141974,31.1189311 32.2586151,31.1189311 L30.6012534,26.4215387 Z M36.3305291,36.2222222 L35.1383565,36.2222222 C34.3187378,36.2222222 34.0549293,35.7985899 33.8877835,35.3532835 L33.2171863,33.6193467 C32.176049,33.6370801 31.5698937,33.6370801 30.6193776,33.6370801 C29.6426821,33.6370801 28.8472291,33.6370801 28.0276104,33.6193467 L27.4415931,35.201564 C27.2261159,35.7985899 26.9864731,36.2222222 26.1003988,36.2222222 L25.105579,36.2222222 C24.1067317,36.2222222 24,35.9049906 24,35.4774176 C24,35.3532835 24.0886074,35.0794003 24.1973529,34.7799021 L28.6498762,23.0777993 C28.9136846,22.3802839 29.2137416,22 30.1642577,22 L31.0503319,22 C31.9847376,22 32.3089602,22.3802839 32.5667273,23.0541547 L37.2588933,34.9729996 C37.3052108,35.0971337 37.3495146,35.2252086 37.3495146,35.3710169 C37.3495146,36.092177 36.6950279,36.2222222 36.3305291,36.2222222 Z" id="Fill-32" fill="#333333"></path>
        </g>
    </g>
</svg>