<?xml version="1.0" encoding="utf-8"?>
<!-- Generator: Adobe Illustrator 23.0.3, SVG Export Plug-In . SVG Version: 6.00 Build 0)  -->
<svg version="1.1" id="Ebene_1" xmlns="http://www.w3.org/2000/svg" xmlns:xlink="http://www.w3.org/1999/xlink" x="0px" y="0px"
	 viewBox="0 0 32 32" style="enable-background:new 0 0 32 32;" xml:space="preserve">
<style type="text/css">
	.st0{fill:#0053D8;}
</style>
<g id="Livello_1">
	<path class="st0" d="M31.7,0.4c-0.4-0.4-1-0.4-1.5,0l-2.4,2.4V1.4c0-0.5-0.4-0.9-0.9-0.9s-0.9,0.4-0.9,0.9v3.1l-0.9,1V4.2
		c0-0.5-0.4-0.9-0.9-0.9c-0.5,0-0.9,0.4-0.9,0.9v3.1l-1.6,1.6c-2.3-2-5.2-3.1-8.5-3.1C5.9,5.8,0,11.7,0,18.9S5.9,32,13.1,32
		s13.1-5.9,13.1-13.1c0-3.2-1.2-6.2-3.1-8.5l1.6-1.6h3.1c0.5,0,0.9-0.4,0.9-0.9S28.2,7,27.7,7h-1.3L27.4,6h3.1
		c0.5,0,0.9-0.4,0.9-0.9s-0.4-0.9-0.9-0.9h-1.4l2.4-2.4C32.1,1.5,32.1,0.8,31.7,0.4z M24.1,19c0,6.1-4.9,11-11,11s-11-4.9-11-11
		S7,8,13.1,8c2.6,0,5.1,0.9,7,2.5l-2.6,2.6c-1.3-0.9-2.7-1.5-4.4-1.5c-4,0-7.2,3.2-7.2,7.2s3.2,7.2,7.2,7.2s7.2-3.2,7.2-7.2
		c0-1.6-0.5-3.1-1.5-4.3l2.6-2.6C23.1,13.9,24.1,16.3,24.1,19z M18.3,19c0,2.8-2.3,5.1-5.1,5.1S8.1,21.8,8.1,19s2.3-5.1,5.1-5.1
		c1,0,2.1,0.3,2.8,0.8l-2.2,2.2c-0.2-0.1-0.4-0.1-0.6-0.1c-1.3,0-2.2,0.9-2.2,2.2s0.9,2.2,2.2,2.2s2.2-0.9,2.2-2.2
		c0-0.2,0-0.4-0.1-0.6l2.2-2.2C18,16.9,18.3,17.9,18.3,19z"/>
</g>
<g id="Livello_2">
</g>
</svg>
